{
   "type":"object",
   "properties":{
      "controller_id":{
         "type":"number"
      },
      "r_request":{
         "type":"object",
         "properties":{
            "tags":{
               "type":"array",
               "contains":{
                  "type":"string",
                  "pattern":"^([0-9a-zA-Z_]*)$"
               }
            },
            "command":{
               "type":"object",
               "properties":{
                  "comm_id":{
                     "type":"number",
                     "minimum":1
                  },
                  "data":{
                     "type":"number",
                     "minimum":1
                  }
               },
               "required":[
                  "comm_id",
                  "data"
               ]
            }
         },
         "oneOf":[
            {
               "required":[
                  "tags"
               ]
            },
            {
               "required":[
                  "command"
               ]
            }
         ]
      }
   },
   "required":[
      "controller_id",
      "r_request"
   ]
}
