Fri Feb 21 19:28:35 2020	127.0.0.1	5
Fri Feb 21 19:28:36 2020	127.0.0.1	5
Fri Feb 21 19:28:37 2020	127.0.0.1	5
Fri Feb 21 19:28:39 2020	127.0.0.1	5
Fri Feb 21 19:28:41 2020	127.0.0.1	5
Fri Feb 21 19:28:42 2020	127.0.0.1	5
Fri Feb 21 19:28:44 2020	127.0.0.1	5
Fri Feb 21 19:28:45 2020	127.0.0.1	5
Fri Feb 21 19:28:46 2020	127.0.0.1	5
Fri Feb 21 19:28:47 2020	127.0.0.1	5
Fri Feb 21 19:28:48 2020	127.0.0.1	5
Fri Feb 21 19:28:49 2020	127.0.0.1	5
Fri Feb 21 19:28:50 2020	127.0.0.1	5
Fri Feb 21 19:28:51 2020	127.0.0.1	5
Fri Feb 21 19:28:52 2020	127.0.0.1	5
Fri Feb 21 19:28:53 2020	127.0.0.1	5
Fri Feb 21 19:28:54 2020	127.0.0.1	5
Fri Feb 21 19:28:56 2020	127.0.0.1	5
Fri Feb 21 19:28:57 2020	127.0.0.1	5
Fri Feb 21 19:28:58 2020	127.0.0.1	5
Fri Feb 21 19:28:59 2020	127.0.0.1	5
Fri Feb 21 19:29:00 2020	127.0.0.1	5
Fri Feb 21 19:29:01 2020	127.0.0.1	5
Fri Feb 21 19:29:02 2020	127.0.0.1	5
Fri Feb 21 19:29:03 2020	127.0.0.1	5
Fri Feb 21 19:29:30 2020	127.0.0.1	101
Fri Feb 21 19:29:31 2020	127.0.0.1	90
Fri Feb 21 19:29:31 2020	127.0.0.1	196
Fri Feb 21 19:29:32 2020	127.0.0.1	25
Fri Feb 21 19:29:32 2020	127.0.0.1	133
Fri Feb 21 19:29:33 2020	127.0.0.1	18
Fri Feb 21 19:29:33 2020	127.0.0.1	71
Fri Feb 21 19:29:34 2020	127.0.0.1	128
Fri Feb 21 19:29:35 2020	127.0.0.1	209
Fri Feb 21 19:29:35 2020	127.0.0.1	123
Fri Feb 21 19:29:36 2020	127.0.0.1	16
Fri Feb 21 19:29:36 2020	127.0.0.1	172
Fri Feb 21 19:29:37 2020	127.0.0.1	145
Fri Feb 21 19:29:37 2020	127.0.0.1	16
Fri Feb 21 19:29:38 2020	127.0.0.1	157
Fri Feb 21 19:29:57 2020	127.0.0.1	5
Fri Feb 21 19:29:58 2020	127.0.0.1	5
Fri Feb 21 19:29:59 2020	127.0.0.1	5
Fri Feb 21 19:30:00 2020	127.0.0.1	5
Fri Feb 21 19:30:01 2020	127.0.0.1	5
Fri Feb 21 19:30:02 2020	127.0.0.1	5
Fri Feb 21 19:30:03 2020	127.0.0.1	5
Fri Feb 21 19:30:04 2020	127.0.0.1	5
Fri Feb 21 19:30:05 2020	127.0.0.1	5
Fri Feb 21 19:30:06 2020	127.0.0.1	5
Fri Feb 21 19:30:07 2020	127.0.0.1	5
Fri Feb 21 19:30:08 2020	127.0.0.1	5
Sat Feb 22 01:24:09 2020	127.0.0.1	41
Sat Feb 22 01:24:10 2020	127.0.0.1	4
Sat Feb 22 01:24:10 2020	127.0.0.1	166
Sat Feb 22 01:24:11 2020	127.0.0.1	11
Sat Feb 22 01:24:12 2020	127.0.0.1	117
Sat Feb 22 01:24:13 2020	127.0.0.1	26
Sat Feb 22 01:24:22 2020	127.0.0.1	5
Sat Feb 22 01:24:24 2020	127.0.0.1	5
Sat Feb 22 01:24:26 2020	127.0.0.1	5
Sat Feb 22 01:24:28 2020	127.0.0.1	5
Sat Feb 22 01:24:30 2020	127.0.0.1	5
Sat Feb 22 01:24:32 2020	127.0.0.1	5
Sat Feb 22 01:24:43 2020	127.0.0.1	5
Sat Feb 22 01:24:44 2020	127.0.0.1	5
Sat Feb 22 01:24:45 2020	127.0.0.1	5
Sat Feb 22 01:24:55 2020	127.0.0.1	5
Sat Feb 22 01:24:56 2020	127.0.0.1	5
Sat Feb 22 01:24:57 2020	127.0.0.1	5
Sat Feb 22 01:24:59 2020	127.0.0.1	5
Sat Feb 22 01:25:00 2020	127.0.0.1	5
Fri Feb 28 00:04:30 2020	127.0.0.1	22
Fri Feb 28 00:04:31 2020	127.0.0.1	35
Fri Feb 28 00:04:31 2020	127.0.0.1	166
Fri Feb 28 00:04:32 2020	127.0.0.1	104
Fri Feb 28 00:04:32 2020	127.0.0.1	94
Fri Feb 28 00:04:33 2020	127.0.0.1	69
Fri Feb 28 00:04:33 2020	127.0.0.1	5
Fri Feb 28 00:04:34 2020	127.0.0.1	19
Fri Feb 28 00:04:34 2020	127.0.0.1	1
